{
    "machine_info": {
        "node": "galadriel",
        "processor": "x86_64",
        "machine": "x86_64",
        "python_compiler": "GCC 7.3.0",
        "python_implementation": "CPython",
        "python_implementation_version": "3.6.8",
        "python_version": "3.6.8",
        "python_build": [
            "default",
            "Feb 14 2019 20:45:56"
        ],
        "release": "4.15.0-45-generic",
        "system": "Linux",
        "cpu": {
            "vendor_id": "GenuineIntel",
            "hardware": "unknown",
            "brand": "Intel(R) Core(TM) i5-3317U CPU @ 1.70GHz"
        }
    },
    "commit_info": {
        "id": "ac4be56b6a68999ac4fa766c8bd9f9c524b28e89",
        "time": "2019-03-05T17:03:15+01:00",
        "author_time": "2019-03-05T17:03:15+01:00",
        "dirty": true,
        "project": "pyvallex",
        "branch": "wip/benchmarking"
    },
    "benchmarks": [
        {
            "group": null,
            "name": "test_parse_verbs",
            "fullname": "tests/benchmarks/test_parser.py::test_parse_verbs",
            "params": null,
            "param": null,
            "extra_info": {},
            "options": {
                "disable_gc": false,
                "timer": "process_time",
                "min_rounds": 5,
                "max_time": 1.0,
                "min_time": 5e-06,
                "warmup": false
            },
            "stats": {
                "min": 0.21463292700000025,
                "max": 0.2245022679999984,
                "mean": 0.21910439359999928,
                "stddev": 0.003569334898357035,
                "rounds": 5,
                "median": 0.21927000000000163,
                "iqr": 0.0036320694999991687,
                "q1": 0.21699465449999877,
                "q3": 0.22062672399999794,
                "iqr_outliers": 0,
                "stddev_outliers": 2,
                "outliers": "2;0",
                "ld15iqr": 0.21463292700000025,
                "hd15iqr": 0.2245022679999984,
                "ops": 4.564034447550227,
                "total": 1.0955219679999963,
                "iterations": 1
            }
        }
    ],
    "datetime": "2019-03-06T18:31:43.571195",
    "version": "3.2.2"
}